<?xml version="1.0" encoding="UTF-8"?>
<robot generator="Robot 5.0.1 (Python 3.9.13 on win32)" generated="20230621 15:21:00.294" rpa="false" schemaversion="3">
<suite id="s1" name="WorkspaceCucumber" source="C:\Users\Formation\Desktop\WorkspaceCucumber">
<suite id="s1-s1" name="Tests" source="C:\Users\Formation\Desktop\WorkspaceCucumber\tests">
<suite id="s1-s1-s1" name="4 Connexion" source="C:\Users\Formation\Desktop\WorkspaceCucumber\tests\4_Connexion.robot">
<test id="s1-s1-s1-t1" name="Connexion" line="14">
<kw name="Test Setup" type="SETUP">
<doc>test setup
You can define the je me trouve sur la page d'authentification du site variable with a keyword for setting up all your tests.
You can define the ${TEST_4_SETUP} variable with a keyword for setting up this specific test.
If both are defined, ${TEST_4_SETUP} will be run after je me trouve sur la page d'authentification du site.</doc>
<kw name="Get Variable Value" library="BuiltIn">
<var>${TEST_SETUP_VALUE}</var>
<arg>${TEST_SETUP}</arg>
<doc>Returns variable value or ``default`` if the variable does not exist.</doc>
<msg timestamp="20230621 15:21:00.727" level="INFO">${TEST_SETUP_VALUE} = je me trouve sur la page d'authentification du site</msg>
<status status="PASS" starttime="20230621 15:21:00.726" endtime="20230621 15:21:00.728"/>
</kw>
<kw name="Get Variable Value" library="BuiltIn">
<var>${TEST_4_SETUP_VALUE}</var>
<arg>${TEST_4_SETUP}</arg>
<doc>Returns variable value or ``default`` if the variable does not exist.</doc>
<msg timestamp="20230621 15:21:00.733" level="INFO">${TEST_4_SETUP_VALUE} = None</msg>
<status status="PASS" starttime="20230621 15:21:00.728" endtime="20230621 15:21:00.735"/>
</kw>
<if>
<branch type="IF" condition="$TEST_SETUP_VALUE is not None">
<kw name="Run Keyword" library="BuiltIn">
<arg>${TEST_SETUP}</arg>
<doc>Executes the given keyword with the given arguments.</doc>
<kw name="je me trouve sur la page d'authentification du site" library="Connexion">
<kw name="Open Browser" library="SeleniumLibrary">
<arg>${url}</arg>
<arg>${browser}</arg>
<doc>Opens a new browser instance to the optional ``url``.</doc>
<msg timestamp="20230621 15:21:00.744" level="INFO">Opening browser 'chrome' to base url 'https://petstore.octoperf.com/actions/Catalog.action'.</msg>
<msg timestamp="20230621 15:21:00.745" level="INFO">Cannot capture screenshot because no browser is open.</msg>
<msg timestamp="20230621 15:21:00.748" level="FAIL">TypeError: __init__() got an unexpected keyword argument 'service_log_path'</msg>
<status status="FAIL" starttime="20230621 15:21:00.744" endtime="20230621 15:21:00.756"/>
</kw>
<status status="FAIL" starttime="20230621 15:21:00.743" endtime="20230621 15:21:00.760"/>
</kw>
<status status="FAIL" starttime="20230621 15:21:00.742" endtime="20230621 15:21:00.761"/>
</kw>
<status status="FAIL" starttime="20230621 15:21:00.742" endtime="20230621 15:21:00.762"/>
</branch>
<status status="FAIL" starttime="20230621 15:21:00.735" endtime="20230621 15:21:00.762"/>
</if>
<if>
<branch type="IF" condition="$TEST_4_SETUP_VALUE is not None">
<kw name="Run Keyword" library="BuiltIn">
<arg>${TEST_4_SETUP}</arg>
<doc>Executes the given keyword with the given arguments.</doc>
<status status="NOT RUN" starttime="20230621 15:21:00.763" endtime="20230621 15:21:00.763"/>
</kw>
<status status="NOT RUN" starttime="20230621 15:21:00.762" endtime="20230621 15:21:00.763"/>
</branch>
<status status="NOT RUN" starttime="20230621 15:21:00.762" endtime="20230621 15:21:00.764"/>
</if>
<status status="FAIL" starttime="20230621 15:21:00.725" endtime="20230621 15:21:00.764"/>
</kw>
<kw name="Test Teardown" type="TEARDOWN">
<doc>test teardown
You can define the Fermeture browser variable with a keyword for tearing down all your tests.
You can define the ${TEST_4_TEARDOWN} variable with a keyword for tearing down this specific test.
If both are defined, Fermeture browser will be run after ${TEST_4_TEARDOWN}.</doc>
<kw name="Get Variable Value" library="BuiltIn">
<var>${TEST_4_TEARDOWN_VALUE}</var>
<arg>${TEST_4_TEARDOWN}</arg>
<doc>Returns variable value or ``default`` if the variable does not exist.</doc>
<msg timestamp="20230621 15:21:00.771" level="INFO">${TEST_4_TEARDOWN_VALUE} = None</msg>
<status status="PASS" starttime="20230621 15:21:00.768" endtime="20230621 15:21:00.773"/>
</kw>
<kw name="Get Variable Value" library="BuiltIn">
<var>${TEST_TEARDOWN_VALUE}</var>
<arg>${TEST_TEARDOWN}</arg>
<doc>Returns variable value or ``default`` if the variable does not exist.</doc>
<msg timestamp="20230621 15:21:00.776" level="INFO">${TEST_TEARDOWN_VALUE} = Fermeture browser</msg>
<status status="PASS" starttime="20230621 15:21:00.774" endtime="20230621 15:21:00.776"/>
</kw>
<if>
<branch type="IF" condition="$TEST_4_TEARDOWN_VALUE is not None">
<kw name="Run Keyword" library="BuiltIn">
<arg>${TEST_4_TEARDOWN}</arg>
<doc>Executes the given keyword with the given arguments.</doc>
<status status="NOT RUN" starttime="20230621 15:21:00.778" endtime="20230621 15:21:00.779"/>
</kw>
<status status="NOT RUN" starttime="20230621 15:21:00.777" endtime="20230621 15:21:00.779"/>
</branch>
<status status="PASS" starttime="20230621 15:21:00.777" endtime="20230621 15:21:00.779"/>
</if>
<if>
<branch type="IF" condition="$TEST_TEARDOWN_VALUE is not None">
<kw name="Run Keyword" library="BuiltIn">
<arg>${TEST_TEARDOWN}</arg>
<doc>Executes the given keyword with the given arguments.</doc>
<kw name="Fermeture browser" library="Connexion">
<kw name="Close Browser" library="SeleniumLibrary">
<doc>Closes the current browser.</doc>
<status status="PASS" starttime="20230621 15:21:00.783" endtime="20230621 15:21:00.783"/>
</kw>
<status status="PASS" starttime="20230621 15:21:00.782" endtime="20230621 15:21:00.784"/>
</kw>
<status status="PASS" starttime="20230621 15:21:00.781" endtime="20230621 15:21:00.784"/>
</kw>
<status status="PASS" starttime="20230621 15:21:00.780" endtime="20230621 15:21:00.784"/>
</branch>
<status status="PASS" starttime="20230621 15:21:00.780" endtime="20230621 15:21:00.784"/>
</if>
<status status="PASS" starttime="20230621 15:21:00.768" endtime="20230621 15:21:00.784"/>
</kw>
<doc>Connexion</doc>
<status status="FAIL" starttime="20230621 15:21:00.720" endtime="20230621 15:21:00.785">Setup failed:
TypeError: __init__() got an unexpected keyword argument 'service_log_path'</status>
</test>
<doc>Connexion</doc>
<meta name="Automation priority">null</meta>
<meta name="ID">4</meta>
<meta name="Reference">CT-01</meta>
<meta name="Test case importance">Very high</meta>
<status status="FAIL" starttime="20230621 15:21:00.359" endtime="20230621 15:21:00.789"/>
</suite>
<status status="FAIL" starttime="20230621 15:21:00.351" endtime="20230621 15:21:00.796"/>
</suite>
<status status="FAIL" starttime="20230621 15:21:00.301" endtime="20230621 15:21:00.802"/>
</suite>
<statistics>
<total>
<stat pass="0" fail="1" skip="0">All Tests</stat>
</total>
<tag>
</tag>
<suite>
<stat pass="0" fail="1" skip="0" id="s1" name="WorkspaceCucumber">WorkspaceCucumber</stat>
<stat pass="0" fail="1" skip="0" id="s1-s1" name="Tests">WorkspaceCucumber.Tests</stat>
<stat pass="0" fail="1" skip="0" id="s1-s1-s1" name="4 Connexion">WorkspaceCucumber.Tests.4 Connexion</stat>
</suite>
</statistics>
<errors>
<msg timestamp="20230621 15:21:00.711" level="ERROR">Error in file 'C:\Users\Formation\Desktop\WorkspaceCucumber\tests\4_Connexion.robot' on line 8: Importing library 'squash_tf.TFParamService' failed: ModuleNotFoundError: No module named 'squash_tf'
Traceback (most recent call last):
  None
PYTHONPATH:
  C:\Users\Formation\Desktop\WorkspaceCucumber\lib
  C:\Users\Formation\Desktop\WorkspaceCucumber\resources
  c:\Users\Formation\.vscode\extensions\d-biehl.robotcode-0.43.2\bundled\libs
  c:\Users\Formation\.vscode\extensions\d-biehl.robotcode-0.43.2\bundled\tool\robotcode
  C:\ProgramData\robocorp\ht\efc46b7_b1f3c24_1c0bc041\python39.zip
  C:\ProgramData\robocorp\ht\efc46b7_b1f3c24_1c0bc041\DLLs
  C:\ProgramData\robocorp\ht\efc46b7_b1f3c24_1c0bc041\lib
  C:\ProgramData\robocorp\ht\efc46b7_b1f3c24_1c0bc041
  C:\ProgramData\robocorp\ht\efc46b7_b1f3c24_1c0bc041\lib\site-packages
  C:\ProgramData\robocorp\ht\efc46b7_b1f3c24_1c0bc041\lib\site-packages\win32
  C:\ProgramData\robocorp\ht\efc46b7_b1f3c24_1c0bc041\lib\site-packages\win32\lib
  C:\ProgramData\robocorp\ht\efc46b7_b1f3c24_1c0bc041\lib\site-packages\Pythonwin</msg>
</errors>
</robot>
